{
  "images" : [
    {
      "filename" : "sailor_sea_captain_navy_seaman_hat_adventure_vintage_icon_131583.pdf",
      "idiom" : "universal"
    }
  ],
  "info" : {
    "author" : "xcode",
    "version" : 1
  }
}
