{
  "info" : {
    "author" : "xcode",
    "version" : 1
  },
  "properties" : {
    "content" : "trackingData.cv3dmap",
    "preview" : "preview.jpg",
    "rotation" : [
      0,
      1,
      0,
      0.14054983854293823
    ],
    "translation" : [
      0.019974738359451294,
      0.35029059648513794,
      0.069411873817443848
    ],
    "version" : 1
  }
}
