{
  "images" : [
    {
      "filename" : "wheel_ship_sea_nautical_control_boat_steering_icon_131577.pdf",
      "idiom" : "universal"
    }
  ],
  "info" : {
    "author" : "xcode",
    "version" : 1
  }
}
