{
  "images" : [
    {
      "filename" : "gun_pirate_pistol_vintage_corsair_caribbean_crew_icon_131572.pdf",
      "idiom" : "universal"
    }
  ],
  "info" : {
    "author" : "xcode",
    "version" : 1
  }
}
