{
  "images" : [
    {
      "filename" : "captain_pirate_hat_character_people_vintage_beard_corsair_icon_131608.pdf",
      "idiom" : "universal"
    }
  ],
  "info" : {
    "author" : "xcode",
    "version" : 1
  }
}
